{
  "apidogProject": "1.0.0",
  "$schema": {
    "app": "apidog",
    "type": "project",
    "version": "1.2.0"
  },
  "info": {
    "name": "Client API",
    "description": "Danışan (istemci) profil yönetimi",
    "mockRule": {
      "rules": [],
      "enableSystemRule": true
    }
  },
  "apiCollection": [
    {
      "name": "Root",
      "id": "root_collection",
      "items": [
        {
          "name": "Client Management",
          "id": "client_management_folder",
          "items": [
            {
              "name": "Client",
              "id": "client_entity_folder",
              "items": [
                {
                  "name": "Liste",
                  "ordering": 10,
                  "api": {
                    "id": "client_list_001",
                    "method": "get",
                    "path": "/exapi/clients",
                    "auth": null,
                    "parameters": [
                      {
                        "name": "page",
                        "in": "query",
                        "required": false,
                        "description": "Sayfa numarası (0-indexed)",
                        "schema": {
                          "type": "integer",
                          "example": 0
                        }
                      },
                      {
                        "name": "size",
                        "in": "query",
                        "required": false,
                        "description": "Sayfa başına kayıt sayısı (varsayılan: 10)",
                        "schema": {
                          "type": "integer",
                          "example": 10
                        }
                      },
                      {
                        "name": "sort",
                        "in": "query",
                        "required": false,
                        "description": "Sıralama parametresi (varsayılan: createdAt,desc)",
                        "schema": {
                          "type": "string",
                          "example": "createdAt,desc"
                        }
                      }
                    ],
                    "requestBody": {
                      "type": "none"
                    },
                    "responses": [
                      {
                        "code": 200,
                        "name": "Başarılı",
                        "contentType": "application/json",
                        "jsonSchema": {
                          "type": "object",
                          "properties": {
                            "content": {
                              "type": "array",
                              "description": "Danışan listesi",
                              "items": {
                                "type": "object",
                                "properties": {
                                  "id": {
                                    "type": "string",
                                    "format": "uuid",
                                    "description": "Danışan benzersiz ID'si",
                                    "example": "550e8400-e29b-41d4-a716-446655440000"
                                  },
                                  "firstName": {
                                    "type": "string",
                                    "description": "Danışanın adı",
                                    "example": "Fatih"
                                  },
                                  "lastName": {
                                    "type": "string",
                                    "description": "Danışanın soyadı",
                                    "example": "Demir"
                                  },
                                  "fullName": {
                                    "type": "string",
                                    "description": "Danışanın tam adı",
                                    "example": "Fatih Demir"
                                  },
                                  "birthDay": {
                                    "type": "string",
                                    "format": "date",
                                    "description": "Doğum tarihi",
                                    "example": "1990-05-15"
                                  },
                                  "height": {
                                    "type": "number",
                                    "description": "Boy (cm)",
                                    "example": 175.5
                                  },
                                  "weight": {
                                    "type": "number",
                                    "description": "Kilo (kg)",
                                    "example": 70.2
                                  },
                                  "goal": {
                                    "type": "string",
                                    "description": "Hedef açıklaması",
                                    "example": "3 ayda 10 kilo vermek istiyorum"
                                  }
                                }
                              }
                            },
                            "page": {
                              "type": "integer",
                              "description": "Mevcut sayfa numarası",
                              "example": 0
                            },
                            "size": {
                              "type": "integer",
                              "description": "Sayfa başına kayıt sayısı",
                              "example": 10
                            },
                            "totalElements": {
                              "type": "integer",
                              "description": "Toplam kayıt sayısı",
                              "example": 45
                            },
                            "totalPages": {
                              "type": "integer",
                              "description": "Toplam sayfa sayısı",
                              "example": 5
                            },
                            "last": {
                              "type": "boolean",
                              "description": "Son sayfa mı",
                              "example": false
                            }
                          },
                          "x-apidog-orders": ["content", "page", "size", "totalElements", "totalPages", "last"]
                        }
                      },
                      {
                        "code": 401,
                        "name": "Yetkisiz",
                        "contentType": "application/json",
                        "jsonSchema": {
                          "type": "object",
                          "properties": {
                            "status": { "type": "integer", "example": 401 },
                            "error": { "type": "string", "example": "Unauthorized" },
                            "message": { "type": "string", "example": "Geçersiz veya eksik token" }
                          }
                        }
                      }
                    ],
                    "description": "# Danışan Listesi\n\n## Genel Bakış\nSistemde kayıtlı tüm danışanları sayfalı olarak listeler.\n\n## HTTP Method & Path\n`GET /exapi/clients`\n\n## Yetkilendirme\nBearer token gereklidir\n\n## Query Parameters\n- **page** (integer): Sayfa numarası — 0-indexed (varsayılan: 0)\n- **size** (integer): Sayfa başına kayıt sayısı (varsayılan: 10)\n- **sort** (string): Sıralama — `createdAt,desc` (varsayılan)\n\n## Response\n\n### Başarılı (200)\n```json\n{\n  \"content\": [\n    {\n      \"id\": \"550e8400-e29b-41d4-a716-446655440000\",\n      \"firstName\": \"Fatih\",\n      \"lastName\": \"Demir\",\n      \"fullName\": \"Fatih Demir\",\n      \"birthDay\": \"1990-05-15\",\n      \"height\": 175.5,\n      \"weight\": 70.2,\n      \"goal\": \"3 ayda 10 kilo vermek istiyorum\"\n    }\n  ],\n  \"page\": 0,\n  \"size\": 10,\n  \"totalElements\": 45,\n  \"totalPages\": 5,\n  \"last\": false\n}\n```\n\n## Örnek Request\n```bash\ncurl -X GET 'http://localhost:8080/exapi/clients?page=0&size=10&sort=createdAt,desc' \\\n  -H \"Authorization: Bearer {token}\"\n```"
                  }
                },
                {
                  "name": "Kaydı Getir",
                  "ordering": 20,
                  "api": {
                    "id": "client_get_by_id_002",
                    "method": "get",
                    "path": "/exapi/clients/{id}",
                    "auth": null,
                    "parameters": [
                      {
                        "name": "id",
                        "in": "path",
                        "required": true,
                        "description": "Danışan UUID'si",
                        "schema": {
                          "type": "string",
                          "format": "uuid",
                          "example": "550e8400-e29b-41d4-a716-446655440000"
                        }
                      }
                    ],
                    "requestBody": {
                      "type": "none"
                    },
                    "responses": [
                      {
                        "code": 200,
                        "name": "Başarılı",
                        "contentType": "application/json",
                        "jsonSchema": {
                          "type": "object",
                          "properties": {
                            "id": {
                              "type": "string",
                              "format": "uuid",
                              "description": "Danışan benzersiz ID'si",
                              "example": "550e8400-e29b-41d4-a716-446655440000"
                            },
                            "firstName": {
                              "type": "string",
                              "description": "Danışanın adı",
                              "example": "Fatih"
                            },
                            "lastName": {
                              "type": "string",
                              "description": "Danışanın soyadı",
                              "example": "Demir"
                            },
                            "fullName": {
                              "type": "string",
                              "description": "Danışanın tam adı",
                              "example": "Fatih Demir"
                            },
                            "birthDay": {
                              "type": "string",
                              "format": "date",
                              "description": "Doğum tarihi",
                              "example": "1990-05-15"
                            },
                            "height": {
                              "type": "number",
                              "description": "Boy (cm)",
                              "example": 175.5
                            },
                            "weight": {
                              "type": "number",
                              "description": "Kilo (kg)",
                              "example": 70.2
                            },
                            "goal": {
                              "type": "string",
                              "description": "Hedef açıklaması",
                              "example": "3 ayda 10 kilo vermek istiyorum"
                            }
                          },
                          "x-apidog-orders": ["id", "firstName", "lastName", "fullName", "birthDay", "height", "weight", "goal"]
                        }
                      },
                      {
                        "code": 404,
                        "name": "Bulunamadı",
                        "contentType": "application/json",
                        "jsonSchema": {
                          "type": "object",
                          "properties": {
                            "status": { "type": "integer", "example": 404 },
                            "error": { "type": "string", "example": "Not Found" },
                            "message": { "type": "string", "example": "Danışan bulunamadı" }
                          }
                        }
                      },
                      {
                        "code": 401,
                        "name": "Yetkisiz",
                        "contentType": "application/json",
                        "jsonSchema": {
                          "type": "object",
                          "properties": {
                            "status": { "type": "integer", "example": 401 },
                            "error": { "type": "string", "example": "Unauthorized" },
                            "message": { "type": "string", "example": "Geçersiz veya eksik token" }
                          }
                        }
                      }
                    ],
                    "description": "# Danışan Detayını Getir\n\n## Genel Bakış\nBelirli bir UUID'ye sahip danışanın profil bilgilerini getirir.\n\n## HTTP Method & Path\n`GET /exapi/clients/{id}`\n\n## Yetkilendirme\nBearer token gereklidir\n\n## Path Parameters\n- **id** (UUID, required): Danışan UUID'si\n\n## Response\n\n### Başarılı (200)\n```json\n{\n  \"id\": \"550e8400-e29b-41d4-a716-446655440000\",\n  \"firstName\": \"Fatih\",\n  \"lastName\": \"Demir\",\n  \"fullName\": \"Fatih Demir\",\n  \"birthDay\": \"1990-05-15\",\n  \"height\": 175.5,\n  \"weight\": 70.2,\n  \"goal\": \"3 ayda 10 kilo vermek istiyorum\"\n}\n```\n\n## Örnek Request\n```bash\ncurl -X GET http://localhost:8080/exapi/clients/550e8400-e29b-41d4-a716-446655440000 \\\n  -H \"Authorization: Bearer {token}\"\n```"
                  }
                },
                {
                  "name": "Profili Güncelle",
                  "ordering": 30,
                  "api": {
                    "id": "client_update_profile_003",
                    "method": "patch",
                    "path": "/exapi/clients/me",
                    "auth": null,
                    "parameters": [
                      {
                        "name": "Authorization",
                        "in": "header",
                        "required": true,
                        "description": "Bearer JWT erişim token'ı (CLIENTS rolü gereklidir)",
                        "schema": {
                          "type": "string",
                          "example": "Bearer eyJhbGciOiJSUzI1NiIsInR5cCI6IkpXVCJ9..."
                        }
                      }
                    ],
                    "requestBody": {
                      "type": "application/json",
                      "jsonSchema": {
                        "type": "object",
                        "properties": {
                          "firstName": {
                            "type": "string",
                            "maxLength": 50,
                            "description": "Danışanın adı (maksimum 50 karakter)",
                            "example": "Fatih"
                          },
                          "lastName": {
                            "type": "string",
                            "maxLength": 50,
                            "description": "Danışanın soyadı (maksimum 50 karakter)",
                            "example": "Demir"
                          },
                          "height": {
                            "type": "number",
                            "description": "Boy (cm)",
                            "example": 175.5
                          },
                          "weight": {
                            "type": "number",
                            "description": "Kilo (kg)",
                            "example": 70.2
                          },
                          "goal": {
                            "type": "string",
                            "description": "Hedef açıklaması",
                            "example": "3 ayda 10 kilo vermek istiyorum"
                          }
                        },
                        "x-apidog-orders": ["firstName", "lastName", "height", "weight", "goal"]
                      }
                    },
                    "responses": [
                      {
                        "code": 200,
                        "name": "Profil Güncellendi",
                        "contentType": "application/json",
                        "jsonSchema": {
                          "type": "object",
                          "properties": {
                            "id": {
                              "type": "string",
                              "format": "uuid",
                              "description": "Danışan benzersiz ID'si",
                              "example": "550e8400-e29b-41d4-a716-446655440000"
                            },
                            "firstName": {
                              "type": "string",
                              "description": "Danışanın adı",
                              "example": "Fatih"
                            },
                            "lastName": {
                              "type": "string",
                              "description": "Danışanın soyadı",
                              "example": "Demir"
                            },
                            "fullName": {
                              "type": "string",
                              "description": "Danışanın tam adı",
                              "example": "Fatih Demir"
                            },
                            "birthDay": {
                              "type": "string",
                              "format": "date",
                              "description": "Doğum tarihi",
                              "example": "1990-05-15"
                            },
                            "height": {
                              "type": "number",
                              "description": "Boy (cm)",
                              "example": 175.5
                            },
                            "weight": {
                              "type": "number",
                              "description": "Kilo (kg)",
                              "example": 70.2
                            },
                            "goal": {
                              "type": "string",
                              "description": "Hedef açıklaması",
                              "example": "3 ayda 10 kilo vermek istiyorum"
                            }
                          },
                          "x-apidog-orders": ["id", "firstName", "lastName", "fullName", "birthDay", "height", "weight", "goal"]
                        }
                      },
                      {
                        "code": 400,
                        "name": "Doğrulama Hatası",
                        "contentType": "application/json",
                        "jsonSchema": {
                          "type": "object",
                          "properties": {
                            "status": { "type": "integer", "example": 400 },
                            "error": { "type": "string", "example": "Bad Request" },
                            "message": { "type": "string", "example": "firstName en fazla 50 karakter olabilir" }
                          }
                        }
                      },
                      {
                        "code": 401,
                        "name": "Yetkisiz",
                        "contentType": "application/json",
                        "jsonSchema": {
                          "type": "object",
                          "properties": {
                            "status": { "type": "integer", "example": 401 },
                            "error": { "type": "string", "example": "Unauthorized" },
                            "message": { "type": "string", "example": "Geçersiz veya eksik token" }
                          }
                        }
                      },
                      {
                        "code": 403,
                        "name": "Yetersiz Yetki",
                        "contentType": "application/json",
                        "jsonSchema": {
                          "type": "object",
                          "properties": {
                            "status": { "type": "integer", "example": 403 },
                            "error": { "type": "string", "example": "Forbidden" },
                            "message": { "type": "string", "example": "Bu işlem için CLIENTS rolü gereklidir" }
                          }
                        }
                      }
                    ],
                    "description": "# Danışan Profilini Güncelle\n\n## Genel Bakış\nOturum açmış danışanın kendi profil bilgilerini günceller. Tüm alanlar opsiyoneldir — yalnızca gönderilen alanlar güncellenir (PATCH semantiği).\n\n## HTTP Method & Path\n`PATCH /exapi/clients/me`\n\n## Yetkilendirme\n`CLIENTS` rolüne sahip Bearer token gereklidir\n\n## Request Body (tüm alanlar opsiyonel)\n- **firstName** (string, max 50): Danışanın adı\n- **lastName** (string, max 50): Danışanın soyadı\n- **height** (number): Boy (cm)\n- **weight** (number): Kilo (kg)\n- **goal** (string): Hedef açıklaması\n\n## Response\n\n### Başarılı (200)\n```json\n{\n  \"id\": \"550e8400-e29b-41d4-a716-446655440000\",\n  \"firstName\": \"Fatih\",\n  \"lastName\": \"Demir\",\n  \"fullName\": \"Fatih Demir\",\n  \"birthDay\": \"1990-05-15\",\n  \"height\": 175.5,\n  \"weight\": 70.2,\n  \"goal\": \"3 ayda 10 kilo vermek istiyorum\"\n}\n```\n\n## Örnek Request\n```bash\ncurl -X PATCH http://localhost:8080/exapi/clients/me \\\n  -H \"Authorization: Bearer {token}\" \\\n  -H \"Content-Type: application/json\" \\\n  -d '{\"weight\": 68.5, \"goal\": \"Formumu korumak istiyorum\"}'\n```\n\n## Notlar\n- Sadece kendi profilini güncelleyebilir (`me` endpoint'i)\n- userId JWT token'dan otomatik alınır"
                  }
                }
              ]
            }
          ]
        }
      ]
    }
  ]
}
